{
  "images" : [
    {
      "idiom" : "universal",
      "filename" : "ascending+descending+match+order+sort+sorting+icon-1320073177153848633.png",
      "scale" : "1x"
    },
    {
      "idiom" : "universal",
      "filename" : "ascending+descending+match+order+sort+sorting+icon-1320073177153848634.png",
      "scale" : "2x"
    },
    {
      "idiom" : "universal",
      "filename" : "ascending+descending+match+order+sort+sorting+icon-1320073177153848635.png",
      "scale" : "3x"
    }
  ],
  "info" : {
    "version" : 1,
    "author" : "xcode"
  },
  "properties" : {
    "template-rendering-intent" : "template"
  }
}